$date
	10.8.2021
$end
$version
	Handwritten
$end
$timescale
	1ns
$end
$scope module toplvl $end

$var wire 1 a1 i_sig0 [1] $end
$var wire 1 a0 i_sig0 [0] $end

$var wire 1 b1 i_sig1 [1] $end
$var wire 1 b0 i_sig1 [0] $end

$var wire 1 c2 o_sig [2] $end
$var wire 1 c1 o_sig [1] $end
$var wire 1 c0 o_sig [0] $end

$upscope $end
$enddefinitions $end

#0

0a0
0a1

0b0
0b1

0c0
0c1
0c2

#100

1a0
0a1

0b0
0b1

#120

1c0
0c1
0c2

#200

0a0
1a1

0b0
0b1

#220

0c0
1c1
0c2

#300

1a0
1a1

0b0
0b1

#320

1c0
1c1
0c2

#400

0a0
0a1

0b0
1b1

#420

1c0
0c1
0c2

#500

1a0
0a1

0b0
1b1

#520

0c0
1c1
0c2

#600

0a0
1a1

0b0
1b1

#620

1c0
1c1
0c2

#700

1a0
1a1

0b0
1b1

#720

0c0
0c1
1c2

#800

0a0
0a1

0b0
0b1

#820

0c0
0c1
0c2
